(footprint "SK6812MINI_Reversed" (version 20211014) (generator pcbnew)
  (layer "F.Cu")
  (tedit 5AA4B22F)
  (descr "https://cdn-shop.adafruit.com/product-files/2686/SK6812MINI_REV.01-1-2.pdf")
  (tags "LED RGB NeoPixel Mini")
  (attr smd)
  (fp_text reference "REF**" (at 0 -2.75) (layer "F.SilkS")
    (effects (font (size 1 1) (thickness 0.15)))
    (tstamp 5a11e3a0-df26-4e1e-8b8f-efb3ead5086b)
  )
  (fp_text value "LED_SK6812MINI_PLCC4_3.5x3.5mm_P1.75mm" (at 0 3.25) (layer "F.Fab")
    (effects (font (size 1 1) (thickness 0.15)))
    (tstamp e06e35b3-e0aa-45c8-9c4c-d6ce7c824750)
  )
  (fp_text user "${REFERENCE}" (at 0 0) (layer "F.Fab")
    (effects (font (size 0.5 0.5) (thickness 0.1)))
    (tstamp 44968780-5c6b-43a0-9bc4-76ab950d885b)
  )
  (fp_line (start -4 1.95) (end 4 1.95) (layer "F.SilkS") (width 0.12) (tstamp 0752583f-9f4a-4e0f-b121-2338437591a5))
  (fp_line (start -4 -1.95) (end 4 -1.95) (layer "F.SilkS") (width 0.12) (tstamp 60b68fc6-bf7a-45ae-8f75-33a65c184c3f))
  (fp_line (start -4 1.9375) (end -4 0.8625) (layer "F.SilkS") (width 0.12) (tstamp fd204186-c480-4814-921a-c90abc728b63))
  (fp_rect (start -2 -1.8) (end 2 1.8) (layer "Edge.Cuts") (width 0.1) (fill none) (tstamp a81f025a-a1a0-459b-bf79-0adebf4eccad))
  (fp_line (start -4 2) (end 4 2) (layer "F.CrtYd") (width 0.05) (tstamp 3407ab69-504c-4f7b-94c8-4b7d0f807fa5))
  (fp_line (start 4 -2) (end -4 -2) (layer "F.CrtYd") (width 0.05) (tstamp 618d036d-5236-45e6-9dcf-8d85a1b73eed))
  (fp_line (start -4 -2) (end -4 2) (layer "F.CrtYd") (width 0.05) (tstamp 72992e62-bce9-4f6e-9406-5d626166f6e0))
  (fp_line (start 4 2) (end 4 -2) (layer "F.CrtYd") (width 0.05) (tstamp b6c113c4-050a-4055-bd0b-88b68607e013))
  (fp_line (start 1.6 -1.4) (end -1.6 -1.4) (layer "F.Fab") (width 0.12) (tstamp 0dcd1c42-64d7-4a1b-9ce8-3d34a47d082b))
  (fp_line (start -1.6 -1.4) (end -1.6 1.4) (layer "F.Fab") (width 0.12) (tstamp 3ce4fb2a-fd30-490e-877c-e65c5d0e6f5b))
  (fp_line (start -1.6 1.4) (end 1.6 1.4) (layer "F.Fab") (width 0.12) (tstamp 8b272602-21df-40dd-90b2-da903226b52c))
  (fp_line (start -0.6 1.4) (end -1.6 0.4) (layer "F.Fab") (width 0.12) (tstamp 976c494e-d590-41b8-9da8-5d3ac053dd90))
  (fp_line (start 1.6 1.4) (end 1.6 -1.4) (layer "F.Fab") (width 0.12) (tstamp e3650c39-15ce-4808-b585-6a2d5078d988))
  (fp_circle (center 0 0) (end 1 0) (layer "F.Fab") (width 0.12) (fill none) (tstamp a5be2e30-75a5-411a-a2f1-140f9ef25d86))
  (pad "1" smd rect (at 2.8 0.875) (size 1.4 0.85) (layers "F.Cu" "F.Paste" "F.Mask") (tstamp 80a855b4-41b1-40fc-89fa-5d46a84d59c1))
  (pad "2" smd rect (at -2.8 0.875) (size 1.4 0.85) (layers "F.Cu" "F.Paste" "F.Mask") (tstamp 9a5b3312-e555-4b96-8d26-1be1020a0691))
  (pad "3" smd rect (at -2.8 -0.875) (size 1.4 0.85) (layers "F.Cu" "F.Paste" "F.Mask") (tstamp 3aa8cc5d-54e5-4038-aae5-88b9a0043bb9))
  (pad "4" smd rect (at 2.8 -0.875) (size 1.4 0.85) (layers "F.Cu" "F.Paste" "F.Mask") (tstamp bf51f97d-70b8-403d-b9e7-1c48bc155b9d))
  (model "${KIPRJMOD}/LED_SK6812MINI-E.step"
    (offset (xyz 0 5.075 -1.75))
    (scale (xyz 1 1 1))
    (rotate (xyz 0 180 0))
  )
)
