(kicad_sch (version 20230121) (generator eeschema)

  (uuid 71e69e87-7798-4593-9acc-b68de8dbbc9f)

  (paper "A4")

  (lib_symbols
    (symbol "Connector:TestPoint_2Pole" (pin_names (offset 0.762) hide) (in_bom yes) (on_board yes)
      (property "Reference" "TP" (at 0 1.524 0)
        (effects (font (size 1.27 1.27)))
      )
      (property "Value" "TestPoint_2Pole" (at 0 -1.778 0)
        (effects (font (size 1.27 1.27)))
      )
      (property "Footprint" "" (at 0 0 0)
        (effects (font (size 1.27 1.27)) hide)
      )
      (property "Datasheet" "~" (at 0 0 0)
        (effects (font (size 1.27 1.27)) hide)
      )
      (property "ki_keywords" "point tp" (at 0 0 0)
        (effects (font (size 1.27 1.27)) hide)
      )
      (property "ki_description" "2-polar test point" (at 0 0 0)
        (effects (font (size 1.27 1.27)) hide)
      )
      (property "ki_fp_filters" "Pin* Test*" (at 0 0 0)
        (effects (font (size 1.27 1.27)) hide)
      )
      (symbol "TestPoint_2Pole_0_1"
        (circle (center -1.778 0) (radius 0.762)
          (stroke (width 0) (type default))
          (fill (type none))
        )
        (circle (center 1.778 0) (radius 0.762)
          (stroke (width 0) (type default))
          (fill (type none))
        )
        (pin passive line (at -5.08 0 0) (length 2.54)
          (name "1" (effects (font (size 1.27 1.27))))
          (number "1" (effects (font (size 1.27 1.27))))
        )
        (pin passive line (at 5.08 0 180) (length 2.54)
          (name "2" (effects (font (size 1.27 1.27))))
          (number "2" (effects (font (size 1.27 1.27))))
        )
      )
    )
    (symbol "Connector_Generic:Conn_01x04" (pin_names (offset 1.016) hide) (in_bom yes) (on_board yes)
      (property "Reference" "J" (at 0 5.08 0)
        (effects (font (size 1.27 1.27)))
      )
      (property "Value" "Conn_01x04" (at 0 -7.62 0)
        (effects (font (size 1.27 1.27)))
      )
      (property "Footprint" "" (at 0 0 0)
        (effects (font (size 1.27 1.27)) hide)
      )
      (property "Datasheet" "~" (at 0 0 0)
        (effects (font (size 1.27 1.27)) hide)
      )
      (property "ki_keywords" "connector" (at 0 0 0)
        (effects (font (size 1.27 1.27)) hide)
      )
      (property "ki_description" "Generic connector, single row, 01x04, script generated (kicad-library-utils/schlib/autogen/connector/)" (at 0 0 0)
        (effects (font (size 1.27 1.27)) hide)
      )
      (property "ki_fp_filters" "Connector*:*_1x??_*" (at 0 0 0)
        (effects (font (size 1.27 1.27)) hide)
      )
      (symbol "Conn_01x04_1_1"
        (rectangle (start -1.27 -4.953) (end 0 -5.207)
          (stroke (width 0.1524) (type default))
          (fill (type none))
        )
        (rectangle (start -1.27 -2.413) (end 0 -2.667)
          (stroke (width 0.1524) (type default))
          (fill (type none))
        )
        (rectangle (start -1.27 0.127) (end 0 -0.127)
          (stroke (width 0.1524) (type default))
          (fill (type none))
        )
        (rectangle (start -1.27 2.667) (end 0 2.413)
          (stroke (width 0.1524) (type default))
          (fill (type none))
        )
        (rectangle (start -1.27 3.81) (end 1.27 -6.35)
          (stroke (width 0.254) (type default))
          (fill (type background))
        )
        (pin passive line (at -5.08 2.54 0) (length 3.81)
          (name "Pin_1" (effects (font (size 1.27 1.27))))
          (number "1" (effects (font (size 1.27 1.27))))
        )
        (pin passive line (at -5.08 0 0) (length 3.81)
          (name "Pin_2" (effects (font (size 1.27 1.27))))
          (number "2" (effects (font (size 1.27 1.27))))
        )
        (pin passive line (at -5.08 -2.54 0) (length 3.81)
          (name "Pin_3" (effects (font (size 1.27 1.27))))
          (number "3" (effects (font (size 1.27 1.27))))
        )
        (pin passive line (at -5.08 -5.08 0) (length 3.81)
          (name "Pin_4" (effects (font (size 1.27 1.27))))
          (number "4" (effects (font (size 1.27 1.27))))
        )
      )
    )
    (symbol "Device:C" (pin_numbers hide) (pin_names (offset 0.254)) (in_bom yes) (on_board yes)
      (property "Reference" "C" (at 0.635 2.54 0)
        (effects (font (size 1.27 1.27)) (justify left))
      )
      (property "Value" "C" (at 0.635 -2.54 0)
        (effects (font (size 1.27 1.27)) (justify left))
      )
      (property "Footprint" "" (at 0.9652 -3.81 0)
        (effects (font (size 1.27 1.27)) hide)
      )
      (property "Datasheet" "~" (at 0 0 0)
        (effects (font (size 1.27 1.27)) hide)
      )
      (property "ki_keywords" "cap capacitor" (at 0 0 0)
        (effects (font (size 1.27 1.27)) hide)
      )
      (property "ki_description" "Unpolarized capacitor" (at 0 0 0)
        (effects (font (size 1.27 1.27)) hide)
      )
      (property "ki_fp_filters" "C_*" (at 0 0 0)
        (effects (font (size 1.27 1.27)) hide)
      )
      (symbol "C_0_1"
        (polyline
          (pts
            (xy -2.032 -0.762)
            (xy 2.032 -0.762)
          )
          (stroke (width 0.508) (type default))
          (fill (type none))
        )
        (polyline
          (pts
            (xy -2.032 0.762)
            (xy 2.032 0.762)
          )
          (stroke (width 0.508) (type default))
          (fill (type none))
        )
      )
      (symbol "C_1_1"
        (pin passive line (at 0 3.81 270) (length 2.794)
          (name "~" (effects (font (size 1.27 1.27))))
          (number "1" (effects (font (size 1.27 1.27))))
        )
        (pin passive line (at 0 -3.81 90) (length 2.794)
          (name "~" (effects (font (size 1.27 1.27))))
          (number "2" (effects (font (size 1.27 1.27))))
        )
      )
    )
    (symbol "Device:Crystal_GND24" (pin_names (offset 1.016) hide) (in_bom yes) (on_board yes)
      (property "Reference" "Y" (at 3.175 5.08 0)
        (effects (font (size 1.27 1.27)) (justify left))
      )
      (property "Value" "Crystal_GND24" (at 3.175 3.175 0)
        (effects (font (size 1.27 1.27)) (justify left))
      )
      (property "Footprint" "" (at 0 0 0)
        (effects (font (size 1.27 1.27)) hide)
      )
      (property "Datasheet" "~" (at 0 0 0)
        (effects (font (size 1.27 1.27)) hide)
      )
      (property "ki_keywords" "quartz ceramic resonator oscillator" (at 0 0 0)
        (effects (font (size 1.27 1.27)) hide)
      )
      (property "ki_description" "Four pin crystal, GND on pins 2 and 4" (at 0 0 0)
        (effects (font (size 1.27 1.27)) hide)
      )
      (property "ki_fp_filters" "Crystal*" (at 0 0 0)
        (effects (font (size 1.27 1.27)) hide)
      )
      (symbol "Crystal_GND24_0_1"
        (rectangle (start -1.143 2.54) (end 1.143 -2.54)
          (stroke (width 0.3048) (type default))
          (fill (type none))
        )
        (polyline
          (pts
            (xy -2.54 0)
            (xy -2.032 0)
          )
          (stroke (width 0) (type default))
          (fill (type none))
        )
        (polyline
          (pts
            (xy -2.032 -1.27)
            (xy -2.032 1.27)
          )
          (stroke (width 0.508) (type default))
          (fill (type none))
        )
        (polyline
          (pts
            (xy 0 -3.81)
            (xy 0 -3.556)
          )
          (stroke (width 0) (type default))
          (fill (type none))
        )
        (polyline
          (pts
            (xy 0 3.556)
            (xy 0 3.81)
          )
          (stroke (width 0) (type default))
          (fill (type none))
        )
        (polyline
          (pts
            (xy 2.032 -1.27)
            (xy 2.032 1.27)
          )
          (stroke (width 0.508) (type default))
          (fill (type none))
        )
        (polyline
          (pts
            (xy 2.032 0)
            (xy 2.54 0)
          )
          (stroke (width 0) (type default))
          (fill (type none))
        )
        (polyline
          (pts
            (xy -2.54 -2.286)
            (xy -2.54 -3.556)
            (xy 2.54 -3.556)
            (xy 2.54 -2.286)
          )
          (stroke (width 0) (type default))
          (fill (type none))
        )
        (polyline
          (pts
            (xy -2.54 2.286)
            (xy -2.54 3.556)
            (xy 2.54 3.556)
            (xy 2.54 2.286)
          )
          (stroke (width 0) (type default))
          (fill (type none))
        )
      )
      (symbol "Crystal_GND24_1_1"
        (pin passive line (at -3.81 0 0) (length 1.27)
          (name "1" (effects (font (size 1.27 1.27))))
          (number "1" (effects (font (size 1.27 1.27))))
        )
        (pin passive line (at 0 5.08 270) (length 1.27)
          (name "2" (effects (font (size 1.27 1.27))))
          (number "2" (effects (font (size 1.27 1.27))))
        )
        (pin passive line (at 3.81 0 180) (length 1.27)
          (name "3" (effects (font (size 1.27 1.27))))
          (number "3" (effects (font (size 1.27 1.27))))
        )
        (pin passive line (at 0 -5.08 90) (length 1.27)
          (name "4" (effects (font (size 1.27 1.27))))
          (number "4" (effects (font (size 1.27 1.27))))
        )
      )
    )
    (symbol "Device:R" (pin_numbers hide) (pin_names (offset 0)) (in_bom yes) (on_board yes)
      (property "Reference" "R" (at 2.032 0 90)
        (effects (font (size 1.27 1.27)))
      )
      (property "Value" "R" (at 0 0 90)
        (effects (font (size 1.27 1.27)))
      )
      (property "Footprint" "" (at -1.778 0 90)
        (effects (font (size 1.27 1.27)) hide)
      )
      (property "Datasheet" "~" (at 0 0 0)
        (effects (font (size 1.27 1.27)) hide)
      )
      (property "ki_keywords" "R res resistor" (at 0 0 0)
        (effects (font (size 1.27 1.27)) hide)
      )
      (property "ki_description" "Resistor" (at 0 0 0)
        (effects (font (size 1.27 1.27)) hide)
      )
      (property "ki_fp_filters" "R_*" (at 0 0 0)
        (effects (font (size 1.27 1.27)) hide)
      )
      (symbol "R_0_1"
        (rectangle (start -1.016 -2.54) (end 1.016 2.54)
          (stroke (width 0.254) (type default))
          (fill (type none))
        )
      )
      (symbol "R_1_1"
        (pin passive line (at 0 3.81 270) (length 1.27)
          (name "~" (effects (font (size 1.27 1.27))))
          (number "1" (effects (font (size 1.27 1.27))))
        )
        (pin passive line (at 0 -3.81 90) (length 1.27)
          (name "~" (effects (font (size 1.27 1.27))))
          (number "2" (effects (font (size 1.27 1.27))))
        )
      )
    )
    (symbol "MCU_Microchip_ATmega:ATmega32U4-M" (in_bom yes) (on_board yes)
      (property "Reference" "U" (at -12.7 44.45 0)
        (effects (font (size 1.27 1.27)) (justify left bottom))
      )
      (property "Value" "ATmega32U4-M" (at 2.54 -44.45 0)
        (effects (font (size 1.27 1.27)) (justify left top))
      )
      (property "Footprint" "Package_DFN_QFN:QFN-44-1EP_7x7mm_P0.5mm_EP5.2x5.2mm" (at 0 0 0)
        (effects (font (size 1.27 1.27) italic) hide)
      )
      (property "Datasheet" "http://ww1.microchip.com/downloads/en/DeviceDoc/Atmel-7766-8-bit-AVR-ATmega16U4-32U4_Datasheet.pdf" (at 0 0 0)
        (effects (font (size 1.27 1.27)) hide)
      )
      (property "ki_keywords" "AVR 8bit Microcontroller MegaAVR USB" (at 0 0 0)
        (effects (font (size 1.27 1.27)) hide)
      )
      (property "ki_description" "16MHz, 32kB Flash, 2.5kB SRAM, 1kB EEPROM, USB 2.0, QFN-44" (at 0 0 0)
        (effects (font (size 1.27 1.27)) hide)
      )
      (property "ki_fp_filters" "QFN*1EP*7x7mm*P0.5mm*" (at 0 0 0)
        (effects (font (size 1.27 1.27)) hide)
      )
      (symbol "ATmega32U4-M_0_1"
        (rectangle (start -12.7 -43.18) (end 12.7 43.18)
          (stroke (width 0.254) (type default))
          (fill (type background))
        )
      )
      (symbol "ATmega32U4-M_1_1"
        (pin bidirectional line (at 15.24 -17.78 180) (length 2.54)
          (name "PE6" (effects (font (size 1.27 1.27))))
          (number "1" (effects (font (size 1.27 1.27))))
        )
        (pin bidirectional line (at 15.24 33.02 180) (length 2.54)
          (name "PB2" (effects (font (size 1.27 1.27))))
          (number "10" (effects (font (size 1.27 1.27))))
        )
        (pin bidirectional line (at 15.24 30.48 180) (length 2.54)
          (name "PB3" (effects (font (size 1.27 1.27))))
          (number "11" (effects (font (size 1.27 1.27))))
        )
        (pin bidirectional line (at 15.24 20.32 180) (length 2.54)
          (name "PB7" (effects (font (size 1.27 1.27))))
          (number "12" (effects (font (size 1.27 1.27))))
        )
        (pin input line (at -15.24 38.1 0) (length 2.54)
          (name "~{RESET}" (effects (font (size 1.27 1.27))))
          (number "13" (effects (font (size 1.27 1.27))))
        )
        (pin power_in line (at 0 45.72 270) (length 2.54)
          (name "VCC" (effects (font (size 1.27 1.27))))
          (number "14" (effects (font (size 1.27 1.27))))
        )
        (pin power_in line (at 0 -45.72 90) (length 2.54)
          (name "GND" (effects (font (size 1.27 1.27))))
          (number "15" (effects (font (size 1.27 1.27))))
        )
        (pin output line (at -15.24 27.94 0) (length 2.54)
          (name "XTAL2" (effects (font (size 1.27 1.27))))
          (number "16" (effects (font (size 1.27 1.27))))
        )
        (pin input line (at -15.24 33.02 0) (length 2.54)
          (name "XTAL1" (effects (font (size 1.27 1.27))))
          (number "17" (effects (font (size 1.27 1.27))))
        )
        (pin bidirectional line (at 15.24 7.62 180) (length 2.54)
          (name "PD0" (effects (font (size 1.27 1.27))))
          (number "18" (effects (font (size 1.27 1.27))))
        )
        (pin bidirectional line (at 15.24 5.08 180) (length 2.54)
          (name "PD1" (effects (font (size 1.27 1.27))))
          (number "19" (effects (font (size 1.27 1.27))))
        )
        (pin power_in line (at -2.54 45.72 270) (length 2.54)
          (name "UVCC" (effects (font (size 1.27 1.27))))
          (number "2" (effects (font (size 1.27 1.27))))
        )
        (pin bidirectional line (at 15.24 2.54 180) (length 2.54)
          (name "PD2" (effects (font (size 1.27 1.27))))
          (number "20" (effects (font (size 1.27 1.27))))
        )
        (pin bidirectional line (at 15.24 0 180) (length 2.54)
          (name "PD3" (effects (font (size 1.27 1.27))))
          (number "21" (effects (font (size 1.27 1.27))))
        )
        (pin bidirectional line (at 15.24 -5.08 180) (length 2.54)
          (name "PD5" (effects (font (size 1.27 1.27))))
          (number "22" (effects (font (size 1.27 1.27))))
        )
        (pin passive line (at 0 -45.72 90) (length 2.54) hide
          (name "GND" (effects (font (size 1.27 1.27))))
          (number "23" (effects (font (size 1.27 1.27))))
        )
        (pin power_in line (at 2.54 45.72 270) (length 2.54)
          (name "AVCC" (effects (font (size 1.27 1.27))))
          (number "24" (effects (font (size 1.27 1.27))))
        )
        (pin bidirectional line (at 15.24 -2.54 180) (length 2.54)
          (name "PD4" (effects (font (size 1.27 1.27))))
          (number "25" (effects (font (size 1.27 1.27))))
        )
        (pin bidirectional line (at 15.24 -7.62 180) (length 2.54)
          (name "PD6" (effects (font (size 1.27 1.27))))
          (number "26" (effects (font (size 1.27 1.27))))
        )
        (pin bidirectional line (at 15.24 -10.16 180) (length 2.54)
          (name "PD7" (effects (font (size 1.27 1.27))))
          (number "27" (effects (font (size 1.27 1.27))))
        )
        (pin bidirectional line (at 15.24 27.94 180) (length 2.54)
          (name "PB4" (effects (font (size 1.27 1.27))))
          (number "28" (effects (font (size 1.27 1.27))))
        )
        (pin bidirectional line (at 15.24 25.4 180) (length 2.54)
          (name "PB5" (effects (font (size 1.27 1.27))))
          (number "29" (effects (font (size 1.27 1.27))))
        )
        (pin bidirectional line (at -15.24 10.16 0) (length 2.54)
          (name "D-" (effects (font (size 1.27 1.27))))
          (number "3" (effects (font (size 1.27 1.27))))
        )
        (pin bidirectional line (at 15.24 22.86 180) (length 2.54)
          (name "PB6" (effects (font (size 1.27 1.27))))
          (number "30" (effects (font (size 1.27 1.27))))
        )
        (pin bidirectional line (at 15.24 15.24 180) (length 2.54)
          (name "PC6" (effects (font (size 1.27 1.27))))
          (number "31" (effects (font (size 1.27 1.27))))
        )
        (pin bidirectional line (at 15.24 12.7 180) (length 2.54)
          (name "PC7" (effects (font (size 1.27 1.27))))
          (number "32" (effects (font (size 1.27 1.27))))
        )
        (pin bidirectional line (at 15.24 -15.24 180) (length 2.54)
          (name "~{HWB}/PE2" (effects (font (size 1.27 1.27))))
          (number "33" (effects (font (size 1.27 1.27))))
        )
        (pin passive line (at 0 45.72 270) (length 2.54) hide
          (name "VCC" (effects (font (size 1.27 1.27))))
          (number "34" (effects (font (size 1.27 1.27))))
        )
        (pin passive line (at 0 -45.72 90) (length 2.54) hide
          (name "GND" (effects (font (size 1.27 1.27))))
          (number "35" (effects (font (size 1.27 1.27))))
        )
        (pin bidirectional line (at 15.24 -35.56 180) (length 2.54)
          (name "PF7" (effects (font (size 1.27 1.27))))
          (number "36" (effects (font (size 1.27 1.27))))
        )
        (pin bidirectional line (at 15.24 -33.02 180) (length 2.54)
          (name "PF6" (effects (font (size 1.27 1.27))))
          (number "37" (effects (font (size 1.27 1.27))))
        )
        (pin bidirectional line (at 15.24 -30.48 180) (length 2.54)
          (name "PF5" (effects (font (size 1.27 1.27))))
          (number "38" (effects (font (size 1.27 1.27))))
        )
        (pin bidirectional line (at 15.24 -27.94 180) (length 2.54)
          (name "PF4" (effects (font (size 1.27 1.27))))
          (number "39" (effects (font (size 1.27 1.27))))
        )
        (pin bidirectional line (at -15.24 12.7 0) (length 2.54)
          (name "D+" (effects (font (size 1.27 1.27))))
          (number "4" (effects (font (size 1.27 1.27))))
        )
        (pin bidirectional line (at 15.24 -25.4 180) (length 2.54)
          (name "PF1" (effects (font (size 1.27 1.27))))
          (number "40" (effects (font (size 1.27 1.27))))
        )
        (pin bidirectional line (at 15.24 -22.86 180) (length 2.54)
          (name "PF0" (effects (font (size 1.27 1.27))))
          (number "41" (effects (font (size 1.27 1.27))))
        )
        (pin passive line (at -15.24 22.86 0) (length 2.54)
          (name "AREF" (effects (font (size 1.27 1.27))))
          (number "42" (effects (font (size 1.27 1.27))))
        )
        (pin passive line (at 0 -45.72 90) (length 2.54) hide
          (name "GND" (effects (font (size 1.27 1.27))))
          (number "43" (effects (font (size 1.27 1.27))))
        )
        (pin passive line (at 2.54 45.72 270) (length 2.54) hide
          (name "AVCC" (effects (font (size 1.27 1.27))))
          (number "44" (effects (font (size 1.27 1.27))))
        )
        (pin passive line (at 0 -45.72 90) (length 2.54) hide
          (name "GND" (effects (font (size 1.27 1.27))))
          (number "45" (effects (font (size 1.27 1.27))))
        )
        (pin passive line (at -2.54 -45.72 90) (length 2.54)
          (name "UGND" (effects (font (size 1.27 1.27))))
          (number "5" (effects (font (size 1.27 1.27))))
        )
        (pin passive line (at -15.24 5.08 0) (length 2.54)
          (name "UCAP" (effects (font (size 1.27 1.27))))
          (number "6" (effects (font (size 1.27 1.27))))
        )
        (pin input line (at -15.24 17.78 0) (length 2.54)
          (name "VBUS" (effects (font (size 1.27 1.27))))
          (number "7" (effects (font (size 1.27 1.27))))
        )
        (pin bidirectional line (at 15.24 38.1 180) (length 2.54)
          (name "PB0" (effects (font (size 1.27 1.27))))
          (number "8" (effects (font (size 1.27 1.27))))
        )
        (pin bidirectional line (at 15.24 35.56 180) (length 2.54)
          (name "PB1" (effects (font (size 1.27 1.27))))
          (number "9" (effects (font (size 1.27 1.27))))
        )
      )
    )
    (symbol "power:GND" (power) (pin_names (offset 0)) (in_bom yes) (on_board yes)
      (property "Reference" "#PWR" (at 0 -6.35 0)
        (effects (font (size 1.27 1.27)) hide)
      )
      (property "Value" "GND" (at 0 -3.81 0)
        (effects (font (size 1.27 1.27)))
      )
      (property "Footprint" "" (at 0 0 0)
        (effects (font (size 1.27 1.27)) hide)
      )
      (property "Datasheet" "" (at 0 0 0)
        (effects (font (size 1.27 1.27)) hide)
      )
      (property "ki_keywords" "power-flag" (at 0 0 0)
        (effects (font (size 1.27 1.27)) hide)
      )
      (property "ki_description" "Power symbol creates a global label with name \"GND\" , ground" (at 0 0 0)
        (effects (font (size 1.27 1.27)) hide)
      )
      (symbol "GND_0_1"
        (polyline
          (pts
            (xy 0 0)
            (xy 0 -1.27)
            (xy 1.27 -1.27)
            (xy 0 -2.54)
            (xy -1.27 -1.27)
            (xy 0 -1.27)
          )
          (stroke (width 0) (type default))
          (fill (type none))
        )
      )
      (symbol "GND_1_1"
        (pin power_in line (at 0 0 270) (length 0) hide
          (name "GND" (effects (font (size 1.27 1.27))))
          (number "1" (effects (font (size 1.27 1.27))))
        )
      )
    )
    (symbol "power:VCC" (power) (pin_names (offset 0)) (in_bom yes) (on_board yes)
      (property "Reference" "#PWR" (at 0 -3.81 0)
        (effects (font (size 1.27 1.27)) hide)
      )
      (property "Value" "VCC" (at 0 3.81 0)
        (effects (font (size 1.27 1.27)))
      )
      (property "Footprint" "" (at 0 0 0)
        (effects (font (size 1.27 1.27)) hide)
      )
      (property "Datasheet" "" (at 0 0 0)
        (effects (font (size 1.27 1.27)) hide)
      )
      (property "ki_keywords" "power-flag" (at 0 0 0)
        (effects (font (size 1.27 1.27)) hide)
      )
      (property "ki_description" "Power symbol creates a global label with name \"VCC\"" (at 0 0 0)
        (effects (font (size 1.27 1.27)) hide)
      )
      (symbol "VCC_0_1"
        (polyline
          (pts
            (xy -0.762 1.27)
            (xy 0 2.54)
          )
          (stroke (width 0) (type default))
          (fill (type none))
        )
        (polyline
          (pts
            (xy 0 0)
            (xy 0 2.54)
          )
          (stroke (width 0) (type default))
          (fill (type none))
        )
        (polyline
          (pts
            (xy 0 2.54)
            (xy 0.762 1.27)
          )
          (stroke (width 0) (type default))
          (fill (type none))
        )
      )
      (symbol "VCC_1_1"
        (pin power_in line (at 0 0 90) (length 0) hide
          (name "VCC" (effects (font (size 1.27 1.27))))
          (number "1" (effects (font (size 1.27 1.27))))
        )
      )
    )
  )

  (junction (at 52.07 67.31) (diameter 0) (color 0 0 0 0)
    (uuid 11a629d6-e26e-45fc-b80d-eeedb6e8dd28)
  )
  (junction (at 76.2 57.15) (diameter 0) (color 0 0 0 0)
    (uuid 1a9f7fc8-0936-4297-aa6a-fc3e51595cb6)
  )
  (junction (at 76.2 82.55) (diameter 0) (color 0 0 0 0)
    (uuid 3d750ca0-413b-4c69-af83-0280883704a0)
  )
  (junction (at 76.2 67.31) (diameter 0) (color 0 0 0 0)
    (uuid 5836dc0e-b5f3-499b-bfba-bd252672cced)
  )
  (junction (at 119.38 50.8) (diameter 0) (color 0 0 0 0)
    (uuid 5b114d99-1966-4804-a6ef-b05966b46490)
  )
  (junction (at 52.07 92.71) (diameter 0) (color 0 0 0 0)
    (uuid 636a1ccc-48aa-4834-9a77-9aedd419911f)
  )
  (junction (at 82.55 127) (diameter 0) (color 0 0 0 0)
    (uuid 65a0c391-58b7-429f-a628-fb74da04ddac)
  )
  (junction (at 82.55 116.84) (diameter 0) (color 0 0 0 0)
    (uuid 898e8efe-4f27-4011-a1bc-a0dbaac3d7e8)
  )
  (junction (at 52.07 74.93) (diameter 0) (color 0 0 0 0)
    (uuid a359f5d2-b6df-4ecb-a301-5d085097cc02)
  )
  (junction (at 119.38 144.78) (diameter 0) (color 0 0 0 0)
    (uuid d1e42331-322f-40ca-9a67-82497fec428a)
  )
  (junction (at 82.55 49.53) (diameter 0) (color 0 0 0 0)
    (uuid d6259773-53b9-4b5e-a62c-a182d210d912)
  )
  (junction (at 85.09 49.53) (diameter 0) (color 0 0 0 0)
    (uuid dbfd0815-3f9c-48b9-b2f4-3921ad9cf575)
  )

  (no_connect (at 135.89 90.17) (uuid 174ab368-50a3-41fb-ba6e-322b7bd52a23))
  (no_connect (at 135.89 92.71) (uuid 174ab368-50a3-41fb-ba6e-322b7bd52a24))
  (no_connect (at 135.89 95.25) (uuid 174ab368-50a3-41fb-ba6e-322b7bd52a25))
  (no_connect (at 135.89 97.79) (uuid 174ab368-50a3-41fb-ba6e-322b7bd52a26))
  (no_connect (at 135.89 102.87) (uuid 174ab368-50a3-41fb-ba6e-322b7bd52a27))
  (no_connect (at 135.89 62.23) (uuid 34a2c11c-9738-4b94-a9fd-dc4cfc750bf5))
  (no_connect (at 135.89 67.31) (uuid 575d4c61-698c-4a2f-bde7-02b46ad759d6))
  (no_connect (at 135.89 85.09) (uuid 744e5ddc-39d5-4e89-98f1-9d0ec0c72378))
  (no_connect (at 135.89 82.55) (uuid 744e5ddc-39d5-4e89-98f1-9d0ec0c72379))
  (no_connect (at 135.89 100.33) (uuid 744e5ddc-39d5-4e89-98f1-9d0ec0c7237a))
  (no_connect (at 135.89 105.41) (uuid 744e5ddc-39d5-4e89-98f1-9d0ec0c7237b))
  (no_connect (at 135.89 64.77) (uuid 7487e18f-5508-4f5b-bfe9-3945462c1e9d))
  (no_connect (at 135.89 115.57) (uuid 973cc7f3-32a6-482c-9d76-99d267dc9ba5))
  (no_connect (at 135.89 59.69) (uuid e9b4a11e-41f3-45ba-bf9c-b5addbc3cee1))

  (wire (pts (xy 135.89 133.35) (xy 134.62 133.35))
    (stroke (width 0) (type default))
    (uuid 01935bff-a206-4bfa-8620-d5c3484e8650)
  )
  (wire (pts (xy 93.98 118.11) (xy 93.98 116.84))
    (stroke (width 0) (type default))
    (uuid 05550156-5512-4aea-b010-8ca9cf41f65f)
  )
  (wire (pts (xy 134.62 74.93) (xy 135.89 74.93))
    (stroke (width 0) (type default))
    (uuid 0777bb1d-678d-4bb0-8d32-f2c7e7d965b8)
  )
  (wire (pts (xy 119.38 146.05) (xy 119.38 144.78))
    (stroke (width 0) (type default))
    (uuid 09030d66-d3f0-40fa-aa10-f878d2a654de)
  )
  (wire (pts (xy 134.62 69.85) (xy 135.89 69.85))
    (stroke (width 0) (type default))
    (uuid 09326efe-ba46-4520-8643-638ad9df1b81)
  )
  (wire (pts (xy 121.92 52.07) (xy 121.92 50.8))
    (stroke (width 0) (type default))
    (uuid 0a86fecc-bf4f-4778-bf94-873fe4559157)
  )
  (wire (pts (xy 116.84 143.51) (xy 116.84 144.78))
    (stroke (width 0) (type default))
    (uuid 0c2de5a9-3a0a-4e1a-b45b-83b0a36b9be3)
  )
  (wire (pts (xy 81.28 82.55) (xy 81.28 80.01))
    (stroke (width 0) (type default))
    (uuid 0c60920f-8353-46f0-b02d-ef135b2bd3a2)
  )
  (wire (pts (xy 71.12 116.84) (xy 82.55 116.84))
    (stroke (width 0) (type default))
    (uuid 0e824fd2-b095-4327-b8d0-6c18f889fefd)
  )
  (wire (pts (xy 69.85 92.71) (xy 52.07 92.71))
    (stroke (width 0) (type default))
    (uuid 0fcb9c38-9273-4c9d-a722-64a91731c90f)
  )
  (wire (pts (xy 134.62 102.87) (xy 135.89 102.87))
    (stroke (width 0) (type default))
    (uuid 11466f24-d026-4e0d-820b-fd8591b8a216)
  )
  (wire (pts (xy 69.85 49.53) (xy 82.55 49.53))
    (stroke (width 0) (type default))
    (uuid 1817ddab-08ba-49c7-96a9-7503bd75bdda)
  )
  (wire (pts (xy 86.36 69.85) (xy 86.36 67.31))
    (stroke (width 0) (type default))
    (uuid 19000e0a-44b0-4ad6-bdea-c2bfa43dc728)
  )
  (wire (pts (xy 69.85 90.17) (xy 69.85 92.71))
    (stroke (width 0) (type default))
    (uuid 1c1eac09-642d-47d7-b48e-a7b1c3667739)
  )
  (wire (pts (xy 119.38 144.78) (xy 119.38 143.51))
    (stroke (width 0) (type default))
    (uuid 1d5af439-ecd5-4710-a0e1-ac588e8673ab)
  )
  (wire (pts (xy 104.14 85.09) (xy 101.6 85.09))
    (stroke (width 0) (type default))
    (uuid 260537be-97a8-449b-917b-8e8d8d54403a)
  )
  (wire (pts (xy 134.62 130.81) (xy 135.89 130.81))
    (stroke (width 0) (type default))
    (uuid 264d2b80-5bb6-458d-a821-ae01b96bc205)
  )
  (wire (pts (xy 86.36 67.31) (xy 76.2 67.31))
    (stroke (width 0) (type default))
    (uuid 268b226e-fefc-4221-8ccf-bed3815bb4a0)
  )
  (wire (pts (xy 134.62 67.31) (xy 135.89 67.31))
    (stroke (width 0) (type default))
    (uuid 29e9aca9-57c5-412d-9ef3-fba0dcac8292)
  )
  (wire (pts (xy 104.14 64.77) (xy 86.36 64.77))
    (stroke (width 0) (type default))
    (uuid 2dab9ae7-1d8c-43cd-b044-c5eef106b7d1)
  )
  (wire (pts (xy 161.29 113.03) (xy 160.02 113.03))
    (stroke (width 0) (type default))
    (uuid 2f28677e-c42a-47e2-8c74-5708b43929db)
  )
  (wire (pts (xy 76.2 82.55) (xy 81.28 82.55))
    (stroke (width 0) (type default))
    (uuid 2fb56e36-c0f5-46ec-a722-c9ed44944a13)
  )
  (wire (pts (xy 119.38 52.07) (xy 119.38 50.8))
    (stroke (width 0) (type default))
    (uuid 30dd6a10-9f0c-4f90-9bf6-c50b1694dc45)
  )
  (wire (pts (xy 99.06 92.71) (xy 104.14 92.71))
    (stroke (width 0) (type default))
    (uuid 337584e6-d052-45f4-bb5e-ab806107f3f4)
  )
  (wire (pts (xy 134.62 77.47) (xy 135.89 77.47))
    (stroke (width 0) (type default))
    (uuid 3724e1b4-51c5-4bfd-9099-ae0aaae1c883)
  )
  (wire (pts (xy 68.58 87.63) (xy 93.98 87.63))
    (stroke (width 0) (type default))
    (uuid 37c6b629-218a-4918-884d-d779de452831)
  )
  (wire (pts (xy 135.89 72.39) (xy 134.62 72.39))
    (stroke (width 0) (type default))
    (uuid 39a62ab1-c021-4882-a91a-f38b9c000b89)
  )
  (wire (pts (xy 104.14 69.85) (xy 86.36 69.85))
    (stroke (width 0) (type default))
    (uuid 3acaa8bd-86fb-41d0-9b13-164a96fab383)
  )
  (wire (pts (xy 71.12 62.23) (xy 69.85 62.23))
    (stroke (width 0) (type default))
    (uuid 3d265d55-2a4d-48f5-a2ec-150c31265368)
  )
  (wire (pts (xy 52.07 74.93) (xy 52.07 92.71))
    (stroke (width 0) (type default))
    (uuid 3f6fe5d5-2ea9-4a4a-93bf-f118876b5766)
  )
  (wire (pts (xy 135.89 107.95) (xy 134.62 107.95))
    (stroke (width 0) (type default))
    (uuid 3fefef35-49eb-4993-9570-5510c5106a52)
  )
  (wire (pts (xy 82.55 127) (xy 82.55 125.73))
    (stroke (width 0) (type default))
    (uuid 414dd8c8-0ac6-4a00-a7ec-e0ef4b425fdc)
  )
  (wire (pts (xy 102.87 59.69) (xy 102.87 49.53))
    (stroke (width 0) (type default))
    (uuid 43df30f8-9285-4ec1-aa56-579296ffde87)
  )
  (wire (pts (xy 76.2 82.55) (xy 76.2 96.52))
    (stroke (width 0) (type default))
    (uuid 50940a4a-a5fe-4cff-ba56-aa0d3590d1b1)
  )
  (wire (pts (xy 81.28 80.01) (xy 104.14 80.01))
    (stroke (width 0) (type default))
    (uuid 5320b38b-565d-4bfc-969f-2986d82f55e8)
  )
  (wire (pts (xy 104.14 74.93) (xy 86.36 74.93))
    (stroke (width 0) (type default))
    (uuid 5579d438-4b0c-49d2-8c44-72acbfbaa33e)
  )
  (wire (pts (xy 161.29 113.03) (xy 161.29 114.3))
    (stroke (width 0) (type default))
    (uuid 59aec3af-cc64-4f59-a535-700b44c93def)
  )
  (wire (pts (xy 85.09 49.53) (xy 88.9 49.53))
    (stroke (width 0) (type default))
    (uuid 5d2ea8e6-1b32-46e9-9658-2e60d084af23)
  )
  (wire (pts (xy 82.55 115.57) (xy 82.55 116.84))
    (stroke (width 0) (type default))
    (uuid 5da175ea-c626-4725-a23d-9a8eff6d147d)
  )
  (wire (pts (xy 71.12 118.11) (xy 71.12 116.84))
    (stroke (width 0) (type default))
    (uuid 5eda93dc-46e1-47ee-bda2-bfd3cd57cd13)
  )
  (wire (pts (xy 85.09 50.8) (xy 85.09 49.53))
    (stroke (width 0) (type default))
    (uuid 63d25c03-7229-40b9-a6e1-e54aaff57db7)
  )
  (wire (pts (xy 135.89 115.57) (xy 134.62 115.57))
    (stroke (width 0) (type default))
    (uuid 66324c27-9b52-491e-9786-96b86d02090c)
  )
  (wire (pts (xy 135.89 85.09) (xy 134.62 85.09))
    (stroke (width 0) (type default))
    (uuid 66ec13c5-da75-48d2-9672-63927558d63e)
  )
  (wire (pts (xy 134.62 97.79) (xy 135.89 97.79))
    (stroke (width 0) (type default))
    (uuid 6c8aa62e-69ec-4dbe-b663-373cb7cb6816)
  )
  (wire (pts (xy 134.62 64.77) (xy 135.89 64.77))
    (stroke (width 0) (type default))
    (uuid 6f88ed6c-5b9c-4439-b50b-da24cafa32b1)
  )
  (wire (pts (xy 99.06 93.98) (xy 99.06 92.71))
    (stroke (width 0) (type default))
    (uuid 70eec4c4-bdc6-479a-9dc3-393fd4713371)
  )
  (wire (pts (xy 52.07 74.93) (xy 78.74 74.93))
    (stroke (width 0) (type default))
    (uuid 7490f60a-83a2-4aa7-ae25-11901ba2536b)
  )
  (wire (pts (xy 82.55 128.27) (xy 82.55 127))
    (stroke (width 0) (type default))
    (uuid 7703d121-207a-444e-910f-614a951d05b9)
  )
  (wire (pts (xy 76.2 67.31) (xy 76.2 66.04))
    (stroke (width 0) (type default))
    (uuid 7eed6306-1449-4b09-abfb-c54271baed31)
  )
  (wire (pts (xy 68.58 90.17) (xy 69.85 90.17))
    (stroke (width 0) (type default))
    (uuid 7f1f25c8-9c21-4c7d-8625-3a449bdce527)
  )
  (wire (pts (xy 135.89 123.19) (xy 134.62 123.19))
    (stroke (width 0) (type default))
    (uuid 7fed06b9-364b-4df7-aa77-ae7f60e315d2)
  )
  (wire (pts (xy 68.58 82.55) (xy 76.2 82.55))
    (stroke (width 0) (type default))
    (uuid 80cc7b38-5051-4336-a9d4-059bf5f39564)
  )
  (wire (pts (xy 52.07 92.71) (xy 52.07 93.98))
    (stroke (width 0) (type default))
    (uuid 83f93cf5-7703-491e-967c-3e2f065de4ad)
  )
  (wire (pts (xy 104.14 59.69) (xy 102.87 59.69))
    (stroke (width 0) (type default))
    (uuid 840c925f-3e4a-4709-8f68-12ae2c5d99a5)
  )
  (wire (pts (xy 52.07 67.31) (xy 52.07 74.93))
    (stroke (width 0) (type default))
    (uuid 852389ba-eb31-4f72-a2d0-21cfd83b45fe)
  )
  (wire (pts (xy 134.62 59.69) (xy 135.89 59.69))
    (stroke (width 0) (type default))
    (uuid 88aba827-b4b0-4710-83fa-f398c32ac1f8)
  )
  (wire (pts (xy 82.55 49.53) (xy 85.09 49.53))
    (stroke (width 0) (type default))
    (uuid 8a3df841-14ce-420e-b4c1-149663bb217b)
  )
  (wire (pts (xy 135.89 100.33) (xy 134.62 100.33))
    (stroke (width 0) (type default))
    (uuid 8cbdff75-37d7-41bd-8544-69630be77dda)
  )
  (wire (pts (xy 82.55 127) (xy 93.98 127))
    (stroke (width 0) (type default))
    (uuid 93928bfd-0c55-459c-a8fc-84afe1e390a8)
  )
  (wire (pts (xy 93.98 125.73) (xy 93.98 127))
    (stroke (width 0) (type default))
    (uuid 9647ff90-1b71-4396-83aa-04dcb80ce35d)
  )
  (wire (pts (xy 99.06 49.53) (xy 102.87 49.53))
    (stroke (width 0) (type default))
    (uuid 978f327f-8ea6-46ee-9c40-955bd007feca)
  )
  (wire (pts (xy 82.55 62.23) (xy 82.55 49.53))
    (stroke (width 0) (type default))
    (uuid 9dee8423-5377-4333-8b89-fa80788b0264)
  )
  (wire (pts (xy 116.84 144.78) (xy 119.38 144.78))
    (stroke (width 0) (type default))
    (uuid 9ef07324-6f7c-45b2-9d67-54fd80a0fc44)
  )
  (wire (pts (xy 135.89 120.65) (xy 134.62 120.65))
    (stroke (width 0) (type default))
    (uuid a0a2904a-997f-48b0-8fed-184514ed894c)
  )
  (wire (pts (xy 121.92 50.8) (xy 119.38 50.8))
    (stroke (width 0) (type default))
    (uuid a4d90555-c1ef-4b82-bd6a-6c3236955d0e)
  )
  (wire (pts (xy 134.62 82.55) (xy 135.89 82.55))
    (stroke (width 0) (type default))
    (uuid a8949256-6938-4ea5-9dee-c0cf203727e0)
  )
  (wire (pts (xy 71.12 57.15) (xy 76.2 57.15))
    (stroke (width 0) (type default))
    (uuid aa67cb3d-9c09-4a8e-983f-9a7368f7f129)
  )
  (wire (pts (xy 82.55 116.84) (xy 93.98 116.84))
    (stroke (width 0) (type default))
    (uuid afc71e56-b89f-4fbe-8210-8c40038ef7ac)
  )
  (wire (pts (xy 134.62 113.03) (xy 152.4 113.03))
    (stroke (width 0) (type default))
    (uuid b0116476-55f8-4028-8ffa-d03518c1f95e)
  )
  (wire (pts (xy 82.55 116.84) (xy 82.55 118.11))
    (stroke (width 0) (type default))
    (uuid b24603f2-81c5-4d82-abf4-43b7f0aa6d73)
  )
  (wire (pts (xy 71.12 127) (xy 82.55 127))
    (stroke (width 0) (type default))
    (uuid b2fd224c-69af-40c5-8542-d3ddebc26bca)
  )
  (wire (pts (xy 86.36 57.15) (xy 86.36 64.77))
    (stroke (width 0) (type default))
    (uuid b42d499a-5e15-48e8-b93b-1e363f7beb16)
  )
  (wire (pts (xy 134.62 62.23) (xy 135.89 62.23))
    (stroke (width 0) (type default))
    (uuid b8aca95f-941b-4309-826d-b285814595a0)
  )
  (wire (pts (xy 101.6 87.63) (xy 104.14 87.63))
    (stroke (width 0) (type default))
    (uuid b9fbf400-4bc0-4243-b327-4005c3a916f3)
  )
  (wire (pts (xy 52.07 67.31) (xy 63.5 67.31))
    (stroke (width 0) (type default))
    (uuid bdbbbeab-2e22-4934-9cd2-5a97e8a71600)
  )
  (wire (pts (xy 135.89 95.25) (xy 134.62 95.25))
    (stroke (width 0) (type default))
    (uuid c85de673-25a5-42c4-83f7-4df0eb62f419)
  )
  (wire (pts (xy 69.85 62.23) (xy 69.85 49.53))
    (stroke (width 0) (type default))
    (uuid cc72d614-f1e1-47e6-94ea-4806a765bcfd)
  )
  (wire (pts (xy 76.2 105.41) (xy 76.2 104.14))
    (stroke (width 0) (type default))
    (uuid d1094fa4-85eb-44da-a1d2-214bb6db4a3b)
  )
  (wire (pts (xy 116.84 50.8) (xy 116.84 52.07))
    (stroke (width 0) (type default))
    (uuid d32c0699-5593-4f9a-8eb1-4a9b611decc4)
  )
  (wire (pts (xy 135.89 128.27) (xy 134.62 128.27))
    (stroke (width 0) (type default))
    (uuid d72d40cd-541e-4667-b8c6-6e5b2a853c06)
  )
  (wire (pts (xy 76.2 57.15) (xy 76.2 58.42))
    (stroke (width 0) (type default))
    (uuid d94876bb-c288-4daa-b61b-c67c402891c9)
  )
  (wire (pts (xy 68.58 85.09) (xy 93.98 85.09))
    (stroke (width 0) (type default))
    (uuid dbf27167-fdc5-424b-b0e9-65d596166600)
  )
  (wire (pts (xy 71.12 125.73) (xy 71.12 127))
    (stroke (width 0) (type default))
    (uuid dc75177c-811e-4b65-8d62-114b5e8f68ea)
  )
  (wire (pts (xy 116.84 50.8) (xy 119.38 50.8))
    (stroke (width 0) (type default))
    (uuid df51546f-c4ee-41cc-acea-e8c785484389)
  )
  (wire (pts (xy 135.89 105.41) (xy 134.62 105.41))
    (stroke (width 0) (type default))
    (uuid e1418e21-07c9-4ff0-b8be-f822fc8040d0)
  )
  (wire (pts (xy 71.12 67.31) (xy 76.2 67.31))
    (stroke (width 0) (type default))
    (uuid e16886d4-7cb6-4481-a22f-147721fb794a)
  )
  (wire (pts (xy 86.36 57.15) (xy 76.2 57.15))
    (stroke (width 0) (type default))
    (uuid e2c2ebc8-a795-4e32-a624-a1750804fb3c)
  )
  (wire (pts (xy 119.38 50.8) (xy 119.38 49.53))
    (stroke (width 0) (type default))
    (uuid e2eb7c2c-4a7c-496e-a3bb-05ada0615f88)
  )
  (wire (pts (xy 135.89 125.73) (xy 134.62 125.73))
    (stroke (width 0) (type default))
    (uuid e5fa1c4a-e1c2-4077-9b8d-a78f5163ff7f)
  )
  (wire (pts (xy 135.89 90.17) (xy 134.62 90.17))
    (stroke (width 0) (type default))
    (uuid ed3a34ab-f1cf-499a-9b02-edcc9e444351)
  )
  (wire (pts (xy 134.62 92.71) (xy 135.89 92.71))
    (stroke (width 0) (type default))
    (uuid f11e95fd-8e21-4c37-940e-b5f024564fa7)
  )
  (wire (pts (xy 99.06 102.87) (xy 99.06 101.6))
    (stroke (width 0) (type default))
    (uuid f186942b-fb48-47b2-9b1a-4b86da3d5436)
  )
  (wire (pts (xy 52.07 57.15) (xy 52.07 67.31))
    (stroke (width 0) (type default))
    (uuid f2753e60-9ca8-4b37-bb84-941202dca1dc)
  )
  (wire (pts (xy 81.28 62.23) (xy 82.55 62.23))
    (stroke (width 0) (type default))
    (uuid f8f375d4-2333-4081-bee9-5c5c392f163c)
  )
  (wire (pts (xy 52.07 57.15) (xy 63.5 57.15))
    (stroke (width 0) (type default))
    (uuid fad9c25c-8fab-4e6a-b1f1-47cf29460a14)
  )

  (hierarchical_label "ROW1" (shape input) (at 135.89 123.19 0) (fields_autoplaced)
    (effects (font (size 1.27 1.27)) (justify left))
    (uuid 18691a16-1f20-4a43-82cd-b31177fe9a1c)
  )
  (hierarchical_label "COL3" (shape input) (at 135.89 74.93 0) (fields_autoplaced)
    (effects (font (size 1.27 1.27)) (justify left))
    (uuid 485883ac-eac3-4ab6-a2d5-10cf549e78b9)
  )
  (hierarchical_label "ROW5" (shape input) (at 135.89 133.35 0) (fields_autoplaced)
    (effects (font (size 1.27 1.27)) (justify left))
    (uuid 57700d7a-1eb7-48ed-918d-0325bce6fe68)
  )
  (hierarchical_label "ROW3" (shape input) (at 135.89 128.27 0) (fields_autoplaced)
    (effects (font (size 1.27 1.27)) (justify left))
    (uuid 65502ecb-f07b-4f87-96a7-83102d8fb609)
  )
  (hierarchical_label "DIN" (shape input) (at 135.89 77.47 0) (fields_autoplaced)
    (effects (font (size 1.27 1.27)) (justify left))
    (uuid 6d16c3e5-c55b-4c7d-9639-694c1c01db42)
  )
  (hierarchical_label "COL2" (shape input) (at 135.89 72.39 0) (fields_autoplaced)
    (effects (font (size 1.27 1.27)) (justify left))
    (uuid 6dddbf4b-cb31-49c6-bc6a-9305a3fdeed7)
  )
  (hierarchical_label "COL1" (shape input) (at 135.89 69.85 0) (fields_autoplaced)
    (effects (font (size 1.27 1.27)) (justify left))
    (uuid 9cc2b0c9-5499-49a6-bc79-c936160e78df)
  )
  (hierarchical_label "ROW2" (shape input) (at 135.89 125.73 0) (fields_autoplaced)
    (effects (font (size 1.27 1.27)) (justify left))
    (uuid a7812ecb-db2f-43b8-8af8-6796455df0bb)
  )
  (hierarchical_label "ROW0" (shape input) (at 135.89 120.65 0) (fields_autoplaced)
    (effects (font (size 1.27 1.27)) (justify left))
    (uuid b43688fa-0f06-414e-b5d9-9f2b5465892a)
  )
  (hierarchical_label "COL0" (shape input) (at 135.89 107.95 0) (fields_autoplaced)
    (effects (font (size 1.27 1.27)) (justify left))
    (uuid ebbdfb94-72bb-4ca2-8f38-3099ee6b2bea)
  )
  (hierarchical_label "ROW4" (shape input) (at 135.89 130.81 0) (fields_autoplaced)
    (effects (font (size 1.27 1.27)) (justify left))
    (uuid fa9cdd29-b327-4e11-aa18-5259444ef4ee)
  )

  (symbol (lib_id "Device:C") (at 76.2 100.33 180) (unit 1)
    (in_bom yes) (on_board yes) (dnp no)
    (uuid 031e6b13-8d99-409f-8cb0-a628a27ae0aa)
    (property "Reference" "C4" (at 79.121 99.1616 0)
      (effects (font (size 1.27 1.27)) (justify right))
    )
    (property "Value" "1uF" (at 79.121 101.473 0)
      (effects (font (size 1.27 1.27)) (justify right))
    )
    (property "Footprint" "Capacitor_SMD:C_0805_2012Metric_Pad1.18x1.45mm_HandSolder" (at 75.2348 96.52 0)
      (effects (font (size 1.27 1.27)) hide)
    )
    (property "Datasheet" "https://www.mouser.de/datasheet/2/585/MLCC-1837944.pdf" (at 76.2 100.33 0)
      (effects (font (size 1.27 1.27)) hide)
    )
    (property "mouser part number" "187-CL21F105ZBFNNNE" (at 76.2 100.33 0)
      (effects (font (size 1.27 1.27)) hide)
    )
    (pin "1" (uuid 926b0fff-7226-4c55-8b8d-d963fe8437b0))
    (pin "2" (uuid 8499bfe1-4a41-4c21-870a-a7df848b3954))
    (instances
      (project "t9"
        (path "/ee4822dd-0dcd-4d37-95f6-bbd16d7fcc2b/fed08e20-03fe-462e-b387-341b8ffbf204"
          (reference "C4") (unit 1)
        )
      )
    )
  )

  (symbol (lib_id "power:GND") (at 85.09 50.8 0) (unit 1)
    (in_bom yes) (on_board yes) (dnp no)
    (uuid 055beecd-7c05-44d2-960a-400c5b2dc956)
    (property "Reference" "#PWR0111" (at 85.09 57.15 0)
      (effects (font (size 1.27 1.27)) hide)
    )
    (property "Value" "GND" (at 85.217 55.1942 0)
      (effects (font (size 1.27 1.27)))
    )
    (property "Footprint" "" (at 85.09 50.8 0)
      (effects (font (size 1.27 1.27)) hide)
    )
    (property "Datasheet" "" (at 85.09 50.8 0)
      (effects (font (size 1.27 1.27)) hide)
    )
    (pin "1" (uuid 87d40f1d-a8ad-43bf-81f4-fb24433fd341))
    (instances
      (project "t9"
        (path "/ee4822dd-0dcd-4d37-95f6-bbd16d7fcc2b/fed08e20-03fe-462e-b387-341b8ffbf204"
          (reference "#PWR0111") (unit 1)
        )
      )
    )
  )

  (symbol (lib_id "Device:R") (at 97.79 87.63 90) (unit 1)
    (in_bom yes) (on_board yes) (dnp no)
    (uuid 0f6a8d16-0b27-4cb4-a88a-10ba4be537ab)
    (property "Reference" "R2" (at 101.6 88.9 90)
      (effects (font (size 1.27 1.27)))
    )
    (property "Value" "22R" (at 97.79 90.5764 90)
      (effects (font (size 1.27 1.27)))
    )
    (property "Footprint" "Resistor_SMD:R_0805_2012Metric_Pad1.20x1.40mm_HandSolder" (at 97.79 89.408 90)
      (effects (font (size 1.27 1.27)) hide)
    )
    (property "Datasheet" "https://www.mouser.de/datasheet/2/54/crxxxxx-1858361.pdf" (at 97.79 87.63 0)
      (effects (font (size 1.27 1.27)) hide)
    )
    (property "mouser part number" "652-CR0805JW-220ELF" (at 97.79 87.63 90)
      (effects (font (size 1.27 1.27)) hide)
    )
    (pin "1" (uuid 2645dd70-a362-47d8-8783-63bc63fd7e01))
    (pin "2" (uuid a1e7c71d-ce5f-4f6b-a35a-d4c3e23b89a8))
    (instances
      (project "t9"
        (path "/ee4822dd-0dcd-4d37-95f6-bbd16d7fcc2b/fed08e20-03fe-462e-b387-341b8ffbf204"
          (reference "R2") (unit 1)
        )
      )
    )
  )

  (symbol (lib_id "Device:C") (at 99.06 97.79 180) (unit 1)
    (in_bom yes) (on_board yes) (dnp no)
    (uuid 150c213a-6e66-48d9-8ae5-a802dde477f0)
    (property "Reference" "C8" (at 101.981 96.6216 0)
      (effects (font (size 1.27 1.27)) (justify right))
    )
    (property "Value" "1uF" (at 101.981 98.933 0)
      (effects (font (size 1.27 1.27)) (justify right))
    )
    (property "Footprint" "Capacitor_SMD:C_0805_2012Metric_Pad1.18x1.45mm_HandSolder" (at 98.0948 93.98 0)
      (effects (font (size 1.27 1.27)) hide)
    )
    (property "Datasheet" "https://www.mouser.de/datasheet/2/585/MLCC-1837944.pdf" (at 99.06 97.79 0)
      (effects (font (size 1.27 1.27)) hide)
    )
    (property "mouser part number" "187-CL21F105ZBFNNNE" (at 99.06 97.79 0)
      (effects (font (size 1.27 1.27)) hide)
    )
    (pin "1" (uuid 955b03a5-854d-4635-889f-3cc745b1a48f))
    (pin "2" (uuid d62dd72c-4999-44a2-8f91-33dafc86a29f))
    (instances
      (project "t9"
        (path "/ee4822dd-0dcd-4d37-95f6-bbd16d7fcc2b/fed08e20-03fe-462e-b387-341b8ffbf204"
          (reference "C8") (unit 1)
        )
      )
    )
  )

  (symbol (lib_id "power:VCC") (at 76.2 82.55 0) (unit 1)
    (in_bom yes) (on_board yes) (dnp no)
    (uuid 16c4d6d4-ba35-4cd9-a46f-44d76487859f)
    (property "Reference" "#PWR0110" (at 76.2 86.36 0)
      (effects (font (size 1.27 1.27)) hide)
    )
    (property "Value" "VCC" (at 76.6318 78.1558 0)
      (effects (font (size 1.27 1.27)))
    )
    (property "Footprint" "" (at 76.2 82.55 0)
      (effects (font (size 1.27 1.27)) hide)
    )
    (property "Datasheet" "" (at 76.2 82.55 0)
      (effects (font (size 1.27 1.27)) hide)
    )
    (pin "1" (uuid 615305c9-4316-4226-8b53-8ee4533944eb))
    (instances
      (project "t9"
        (path "/ee4822dd-0dcd-4d37-95f6-bbd16d7fcc2b/fed08e20-03fe-462e-b387-341b8ffbf204"
          (reference "#PWR0110") (unit 1)
        )
      )
    )
  )

  (symbol (lib_id "Device:R") (at 97.79 85.09 270) (unit 1)
    (in_bom yes) (on_board yes) (dnp no)
    (uuid 1998cf1d-d07e-4cf7-adf4-a8dce9c7393d)
    (property "Reference" "R1" (at 101.6 83.82 90)
      (effects (font (size 1.27 1.27)))
    )
    (property "Value" "22R" (at 97.79 82.1436 90)
      (effects (font (size 1.27 1.27)))
    )
    (property "Footprint" "Resistor_SMD:R_0805_2012Metric_Pad1.20x1.40mm_HandSolder" (at 97.79 83.312 90)
      (effects (font (size 1.27 1.27)) hide)
    )
    (property "Datasheet" "https://www.mouser.de/datasheet/2/54/crxxxxx-1858361.pdf" (at 97.79 85.09 0)
      (effects (font (size 1.27 1.27)) hide)
    )
    (property "mouser part number" "652-CR0805JW-220ELF" (at 97.79 85.09 90)
      (effects (font (size 1.27 1.27)) hide)
    )
    (pin "1" (uuid 59086e11-f73e-48d7-af46-15ec591cffb2))
    (pin "2" (uuid 6f771989-625a-4ff1-9126-fa39249d137e))
    (instances
      (project "t9"
        (path "/ee4822dd-0dcd-4d37-95f6-bbd16d7fcc2b/fed08e20-03fe-462e-b387-341b8ffbf204"
          (reference "R1") (unit 1)
        )
      )
    )
  )

  (symbol (lib_id "power:GND") (at 76.2 105.41 0) (unit 1)
    (in_bom yes) (on_board yes) (dnp no)
    (uuid 29d7fb36-1c7a-4f1c-8270-748ccccc6829)
    (property "Reference" "#PWR0105" (at 76.2 111.76 0)
      (effects (font (size 1.27 1.27)) hide)
    )
    (property "Value" "GND" (at 76.327 109.8042 0)
      (effects (font (size 1.27 1.27)))
    )
    (property "Footprint" "" (at 76.2 105.41 0)
      (effects (font (size 1.27 1.27)) hide)
    )
    (property "Datasheet" "" (at 76.2 105.41 0)
      (effects (font (size 1.27 1.27)) hide)
    )
    (pin "1" (uuid 7caeef2d-4b48-4686-bd63-f22e038cf4fa))
    (instances
      (project "t9"
        (path "/ee4822dd-0dcd-4d37-95f6-bbd16d7fcc2b/fed08e20-03fe-462e-b387-341b8ffbf204"
          (reference "#PWR0105") (unit 1)
        )
      )
    )
  )

  (symbol (lib_id "power:GND") (at 52.07 93.98 0) (unit 1)
    (in_bom yes) (on_board yes) (dnp no)
    (uuid 4af9ff44-636f-4f54-af82-643fd824c879)
    (property "Reference" "#PWR0106" (at 52.07 100.33 0)
      (effects (font (size 1.27 1.27)) hide)
    )
    (property "Value" "GND" (at 52.197 98.3742 0)
      (effects (font (size 1.27 1.27)))
    )
    (property "Footprint" "" (at 52.07 93.98 0)
      (effects (font (size 1.27 1.27)) hide)
    )
    (property "Datasheet" "" (at 52.07 93.98 0)
      (effects (font (size 1.27 1.27)) hide)
    )
    (pin "1" (uuid f5d525b0-61c8-4473-853c-d78c182f0cf1))
    (instances
      (project "t9"
        (path "/ee4822dd-0dcd-4d37-95f6-bbd16d7fcc2b/fed08e20-03fe-462e-b387-341b8ffbf204"
          (reference "#PWR0106") (unit 1)
        )
      )
    )
  )

  (symbol (lib_id "power:GND") (at 161.29 114.3 0) (unit 1)
    (in_bom yes) (on_board yes) (dnp no)
    (uuid 4e1f9263-0735-4624-9216-c523fbd0da4f)
    (property "Reference" "#PWR0104" (at 161.29 120.65 0)
      (effects (font (size 1.27 1.27)) hide)
    )
    (property "Value" "GND" (at 161.417 118.6942 0)
      (effects (font (size 1.27 1.27)))
    )
    (property "Footprint" "" (at 161.29 114.3 0)
      (effects (font (size 1.27 1.27)) hide)
    )
    (property "Datasheet" "" (at 161.29 114.3 0)
      (effects (font (size 1.27 1.27)) hide)
    )
    (pin "1" (uuid 2e09dc24-30d3-4612-9e53-2207ab1205c7))
    (instances
      (project "t9"
        (path "/ee4822dd-0dcd-4d37-95f6-bbd16d7fcc2b/fed08e20-03fe-462e-b387-341b8ffbf204"
          (reference "#PWR0104") (unit 1)
        )
      )
    )
  )

  (symbol (lib_id "Device:C") (at 93.98 121.92 0) (unit 1)
    (in_bom yes) (on_board yes) (dnp no)
    (uuid 565f2f35-143f-45ad-a549-c89b6b864a09)
    (property "Reference" "C7" (at 96.901 120.7516 0)
      (effects (font (size 1.27 1.27)) (justify left))
    )
    (property "Value" "0.1uF" (at 96.901 123.063 0)
      (effects (font (size 1.27 1.27)) (justify left))
    )
    (property "Footprint" "Capacitor_SMD:C_0805_2012Metric_Pad1.18x1.45mm_HandSolder" (at 94.9452 125.73 0)
      (effects (font (size 1.27 1.27)) hide)
    )
    (property "Datasheet" "https://www.mouser.de/datasheet/2/585/MLCC-1837944.pdf" (at 93.98 121.92 0)
      (effects (font (size 1.27 1.27)) hide)
    )
    (property "mouser part number" "187-CL21F104ZBCNNNC" (at 93.98 121.92 0)
      (effects (font (size 1.27 1.27)) hide)
    )
    (pin "1" (uuid 4b3b56b1-4cd8-49e2-ab7c-83abda1f0db6))
    (pin "2" (uuid 6da5f1dc-4490-4da4-bbbe-7798cb59d3cc))
    (instances
      (project "t9"
        (path "/ee4822dd-0dcd-4d37-95f6-bbd16d7fcc2b/fed08e20-03fe-462e-b387-341b8ffbf204"
          (reference "C7") (unit 1)
        )
      )
    )
  )

  (symbol (lib_id "Device:R") (at 156.21 113.03 90) (unit 1)
    (in_bom yes) (on_board yes) (dnp no)
    (uuid 5de973f6-3a31-4703-8881-757ae8470724)
    (property "Reference" "R3" (at 156.21 118.11 90)
      (effects (font (size 1.27 1.27)))
    )
    (property "Value" "1k" (at 156.21 115.57 90)
      (effects (font (size 1.27 1.27)))
    )
    (property "Footprint" "Resistor_SMD:R_0805_2012Metric_Pad1.20x1.40mm_HandSolder" (at 156.21 114.808 90)
      (effects (font (size 1.27 1.27)) hide)
    )
    (property "Datasheet" "https://www.mouser.de/datasheet/2/418/NG_CD_1623327_BA-655767.pdf" (at 156.21 113.03 0)
      (effects (font (size 1.27 1.27)) hide)
    )
    (property "mouser part number" "279-CRG0805J1K0" (at 156.21 113.03 90)
      (effects (font (size 1.27 1.27)) hide)
    )
    (pin "1" (uuid 52893b1d-0fa0-4607-8303-1789be2d0abf))
    (pin "2" (uuid ec9ef7e8-ea28-4cf2-825e-56208e715841))
    (instances
      (project "t9"
        (path "/ee4822dd-0dcd-4d37-95f6-bbd16d7fcc2b/fed08e20-03fe-462e-b387-341b8ffbf204"
          (reference "R3") (unit 1)
        )
      )
    )
  )

  (symbol (lib_id "power:GND") (at 119.38 146.05 0) (unit 1)
    (in_bom yes) (on_board yes) (dnp no)
    (uuid 6110e009-2589-46be-803e-cdb46f59302a)
    (property "Reference" "#PWR0102" (at 119.38 152.4 0)
      (effects (font (size 1.27 1.27)) hide)
    )
    (property "Value" "GND" (at 119.507 150.4442 0)
      (effects (font (size 1.27 1.27)))
    )
    (property "Footprint" "" (at 119.38 146.05 0)
      (effects (font (size 1.27 1.27)) hide)
    )
    (property "Datasheet" "" (at 119.38 146.05 0)
      (effects (font (size 1.27 1.27)) hide)
    )
    (pin "1" (uuid c357ff42-ccd8-4e75-9b3c-837fde0bbbc5))
    (instances
      (project "t9"
        (path "/ee4822dd-0dcd-4d37-95f6-bbd16d7fcc2b/fed08e20-03fe-462e-b387-341b8ffbf204"
          (reference "#PWR0102") (unit 1)
        )
      )
    )
  )

  (symbol (lib_id "Device:C") (at 82.55 74.93 270) (unit 1)
    (in_bom yes) (on_board yes) (dnp no)
    (uuid 61eba60c-f039-4668-bf49-71a36c796663)
    (property "Reference" "C5" (at 81.3816 72.009 0)
      (effects (font (size 1.27 1.27)) (justify right))
    )
    (property "Value" "1uF" (at 83.693 72.009 0)
      (effects (font (size 1.27 1.27)) (justify right))
    )
    (property "Footprint" "Capacitor_SMD:C_0805_2012Metric_Pad1.18x1.45mm_HandSolder" (at 78.74 75.8952 0)
      (effects (font (size 1.27 1.27)) hide)
    )
    (property "Datasheet" "https://www.mouser.de/datasheet/2/585/MLCC-1837944.pdf" (at 82.55 74.93 0)
      (effects (font (size 1.27 1.27)) hide)
    )
    (property "mouser part number" "187-CL21F105ZBFNNNE" (at 82.55 74.93 0)
      (effects (font (size 1.27 1.27)) hide)
    )
    (pin "1" (uuid 79dbef16-0f6c-4431-a65a-e15007099b81))
    (pin "2" (uuid b1d8879a-0437-425a-b183-ea49a1618aeb))
    (instances
      (project "t9"
        (path "/ee4822dd-0dcd-4d37-95f6-bbd16d7fcc2b/fed08e20-03fe-462e-b387-341b8ffbf204"
          (reference "C5") (unit 1)
        )
      )
    )
  )

  (symbol (lib_id "power:VCC") (at 119.38 49.53 0) (unit 1)
    (in_bom yes) (on_board yes) (dnp no)
    (uuid 654fe95a-049b-45b8-ba1c-661c45c3aea4)
    (property "Reference" "#PWR0101" (at 119.38 53.34 0)
      (effects (font (size 1.27 1.27)) hide)
    )
    (property "Value" "VCC" (at 119.8118 45.1358 0)
      (effects (font (size 1.27 1.27)))
    )
    (property "Footprint" "" (at 119.38 49.53 0)
      (effects (font (size 1.27 1.27)) hide)
    )
    (property "Datasheet" "" (at 119.38 49.53 0)
      (effects (font (size 1.27 1.27)) hide)
    )
    (pin "1" (uuid ed0e701c-d1f7-4ea1-938d-cf00beb858b4))
    (instances
      (project "t9"
        (path "/ee4822dd-0dcd-4d37-95f6-bbd16d7fcc2b/fed08e20-03fe-462e-b387-341b8ffbf204"
          (reference "#PWR0101") (unit 1)
        )
      )
    )
  )

  (symbol (lib_id "Device:C") (at 82.55 121.92 0) (unit 1)
    (in_bom yes) (on_board yes) (dnp no)
    (uuid 675a3ba5-a7ad-4e43-a72f-2b537b780905)
    (property "Reference" "C6" (at 85.471 120.7516 0)
      (effects (font (size 1.27 1.27)) (justify left))
    )
    (property "Value" "0.1uF" (at 85.471 123.063 0)
      (effects (font (size 1.27 1.27)) (justify left))
    )
    (property "Footprint" "Capacitor_SMD:C_0805_2012Metric_Pad1.18x1.45mm_HandSolder" (at 83.5152 125.73 0)
      (effects (font (size 1.27 1.27)) hide)
    )
    (property "Datasheet" "https://www.mouser.de/datasheet/2/585/MLCC-1837944.pdf" (at 82.55 121.92 0)
      (effects (font (size 1.27 1.27)) hide)
    )
    (property "mouser part number" "187-CL21F104ZBCNNNC" (at 82.55 121.92 0)
      (effects (font (size 1.27 1.27)) hide)
    )
    (pin "1" (uuid 990c897a-33ec-4778-b0ff-ce1922f74eec))
    (pin "2" (uuid 3625fe7b-5459-4b32-b05f-0b25df1cc576))
    (instances
      (project "t9"
        (path "/ee4822dd-0dcd-4d37-95f6-bbd16d7fcc2b/fed08e20-03fe-462e-b387-341b8ffbf204"
          (reference "C6") (unit 1)
        )
      )
    )
  )

  (symbol (lib_id "Device:C") (at 67.31 57.15 270) (unit 1)
    (in_bom yes) (on_board yes) (dnp no)
    (uuid 69a8470d-9887-4bed-ba17-245fa785c016)
    (property "Reference" "C1" (at 67.31 50.7492 90)
      (effects (font (size 1.27 1.27)))
    )
    (property "Value" "22pF" (at 67.31 53.0606 90)
      (effects (font (size 1.27 1.27)))
    )
    (property "Footprint" "Capacitor_SMD:C_0805_2012Metric_Pad1.18x1.45mm_HandSolder" (at 63.5 58.1152 0)
      (effects (font (size 1.27 1.27)) hide)
    )
    (property "Datasheet" "https://www.mouser.de/datasheet/2/212/KEM_C1007_X8R_ULTRA_150C_SMD-1102703.pdf" (at 67.31 57.15 0)
      (effects (font (size 1.27 1.27)) hide)
    )
    (property "mouser part number" "80-C0805C220K5HACTU" (at 67.31 57.15 90)
      (effects (font (size 1.27 1.27)) hide)
    )
    (pin "1" (uuid e5c3b092-fabd-44bc-bfd4-1580d6c93be5))
    (pin "2" (uuid d881caf0-ee8a-477b-b3f5-bbaebf342e31))
    (instances
      (project "t9"
        (path "/ee4822dd-0dcd-4d37-95f6-bbd16d7fcc2b/fed08e20-03fe-462e-b387-341b8ffbf204"
          (reference "C1") (unit 1)
        )
      )
    )
  )

  (symbol (lib_id "power:GND") (at 82.55 128.27 0) (unit 1)
    (in_bom yes) (on_board yes) (dnp no)
    (uuid 83050d01-6e6c-4229-869b-327bc605a3c5)
    (property "Reference" "#PWR0107" (at 82.55 134.62 0)
      (effects (font (size 1.27 1.27)) hide)
    )
    (property "Value" "GND" (at 82.677 132.6642 0)
      (effects (font (size 1.27 1.27)))
    )
    (property "Footprint" "" (at 82.55 128.27 0)
      (effects (font (size 1.27 1.27)) hide)
    )
    (property "Datasheet" "" (at 82.55 128.27 0)
      (effects (font (size 1.27 1.27)) hide)
    )
    (pin "1" (uuid d81cd682-d4b8-44fc-9caf-ac1037d4723d))
    (instances
      (project "t9"
        (path "/ee4822dd-0dcd-4d37-95f6-bbd16d7fcc2b/fed08e20-03fe-462e-b387-341b8ffbf204"
          (reference "#PWR0107") (unit 1)
        )
      )
    )
  )

  (symbol (lib_id "power:GND") (at 99.06 102.87 0) (unit 1)
    (in_bom yes) (on_board yes) (dnp no)
    (uuid 9c78324c-7477-45c1-8908-193b800bddd9)
    (property "Reference" "#PWR0109" (at 99.06 109.22 0)
      (effects (font (size 1.27 1.27)) hide)
    )
    (property "Value" "GND" (at 99.187 107.2642 0)
      (effects (font (size 1.27 1.27)))
    )
    (property "Footprint" "" (at 99.06 102.87 0)
      (effects (font (size 1.27 1.27)) hide)
    )
    (property "Datasheet" "" (at 99.06 102.87 0)
      (effects (font (size 1.27 1.27)) hide)
    )
    (pin "1" (uuid 1204178a-844b-4d88-84d3-e74df432feab))
    (instances
      (project "t9"
        (path "/ee4822dd-0dcd-4d37-95f6-bbd16d7fcc2b/fed08e20-03fe-462e-b387-341b8ffbf204"
          (reference "#PWR0109") (unit 1)
        )
      )
    )
  )

  (symbol (lib_id "Connector_Generic:Conn_01x04") (at 63.5 85.09 0) (mirror y) (unit 1)
    (in_bom yes) (on_board yes) (dnp no) (fields_autoplaced)
    (uuid a7f05a0c-90d4-4079-a06f-a89ae96f62ea)
    (property "Reference" "J1" (at 63.5 76.2 0)
      (effects (font (size 1.27 1.27)))
    )
    (property "Value" "Conn_01x04" (at 63.5 78.74 0)
      (effects (font (size 1.27 1.27)))
    )
    (property "Footprint" "Connector_Wire:SolderWire-0.1sqmm_1x04_P3.6mm_D0.4mm_OD1mm" (at 63.5 85.09 0)
      (effects (font (size 1.27 1.27)) hide)
    )
    (property "Datasheet" "~" (at 63.5 85.09 0)
      (effects (font (size 1.27 1.27)) hide)
    )
    (pin "1" (uuid 674bffae-5d14-4215-8b8b-4f3dfd82e2f5))
    (pin "2" (uuid 2c3c0774-0cea-41e0-9e15-1cc089f3335b))
    (pin "3" (uuid 97b517fd-f58c-4a67-a0b5-72307109f487))
    (pin "4" (uuid eaed1fca-6eb2-4ed9-b7dd-ff64f5cf226e))
    (instances
      (project "t9"
        (path "/ee4822dd-0dcd-4d37-95f6-bbd16d7fcc2b/fed08e20-03fe-462e-b387-341b8ffbf204"
          (reference "J1") (unit 1)
        )
      )
    )
  )

  (symbol (lib_id "Device:Crystal_GND24") (at 76.2 62.23 90) (unit 1)
    (in_bom yes) (on_board yes) (dnp no) (fields_autoplaced)
    (uuid b3cab272-db17-4e58-95d6-dcea7e6afb39)
    (property "Reference" "Y1" (at 88.9 57.531 90)
      (effects (font (size 1.27 1.27)))
    )
    (property "Value" "Abracon ABM8-16.000MHZ-9-B1U-T" (at 88.9 60.071 90)
      (effects (font (size 1.27 1.27)))
    )
    (property "Footprint" "Crystal:Crystal_SMD_3225-4Pin_3.2x2.5mm" (at 76.2 62.23 0)
      (effects (font (size 1.27 1.27)) hide)
    )
    (property "Datasheet" "https://www.mouser.de/datasheet/2/3/abm8-1384678.pdf" (at 76.2 62.23 0)
      (effects (font (size 1.27 1.27)) hide)
    )
    (property "mouser part number" "815-M816000MHZ9B1UT" (at 76.2 62.23 90)
      (effects (font (size 1.27 1.27)) hide)
    )
    (pin "1" (uuid dd2f971f-6c9d-456c-8784-e092ef90bc93))
    (pin "2" (uuid f2514e68-4231-454a-9e93-e2a66980bc47))
    (pin "3" (uuid 43965270-3c30-4ac2-9f92-fdf40dc7fe9b))
    (pin "4" (uuid 02c4b218-ccc8-4980-b49a-08c362050d40))
    (instances
      (project "t9"
        (path "/ee4822dd-0dcd-4d37-95f6-bbd16d7fcc2b/fed08e20-03fe-462e-b387-341b8ffbf204"
          (reference "Y1") (unit 1)
        )
      )
    )
  )

  (symbol (lib_id "MCU_Microchip_ATmega:ATmega32U4-M") (at 119.38 97.79 0) (unit 1)
    (in_bom yes) (on_board yes) (dnp no) (fields_autoplaced)
    (uuid b4b42479-0fee-4bcc-8763-61928ac6c399)
    (property "Reference" "U1" (at 121.3994 143.51 0)
      (effects (font (size 1.27 1.27)) (justify left))
    )
    (property "Value" "ATmega32U4-M" (at 121.3994 146.05 0)
      (effects (font (size 1.27 1.27)) (justify left))
    )
    (property "Footprint" "Package_DFN_QFN:QFN-44-1EP_7x7mm_P0.5mm_EP5.2x5.2mm" (at 119.38 97.79 0)
      (effects (font (size 1.27 1.27) italic) hide)
    )
    (property "Datasheet" "http://ww1.microchip.com/downloads/en/DeviceDoc/Atmel-7766-8-bit-AVR-ATmega16U4-32U4_Datasheet.pdf" (at 119.38 97.79 0)
      (effects (font (size 1.27 1.27)) hide)
    )
    (pin "1" (uuid 4712c2a8-05d8-4321-b05b-511fe0e0c2ac))
    (pin "10" (uuid 833d143e-4bae-4b4e-9e29-26624cd2fb20))
    (pin "11" (uuid 6784fe59-6c7f-48d5-a1d7-f6b960da5c75))
    (pin "12" (uuid 8648f819-e40e-48c6-8607-9130d0a382f4))
    (pin "13" (uuid 9e567ae2-37bf-499e-9d00-679075092483))
    (pin "14" (uuid 7d41bc38-07fc-4e96-bd36-2a04fe6486a3))
    (pin "15" (uuid a7ecd370-5dac-4513-97be-3d6bc570e181))
    (pin "16" (uuid c4e1f186-b28d-4a5a-8528-d6352ba1c2c9))
    (pin "17" (uuid a1dbbddf-7f91-4aff-b1a3-39ab6c824c69))
    (pin "18" (uuid 958c38dd-30b0-46ba-bd43-57b2d31b0b90))
    (pin "19" (uuid 6c6db572-d253-40eb-a286-a5afda4e4b12))
    (pin "2" (uuid d64dcc47-cb62-4739-a84d-68bb661d6286))
    (pin "20" (uuid 2b5f6b7e-28ae-469e-bb3b-c0012f0b9ea6))
    (pin "21" (uuid a22b790b-7e65-420f-8746-7ee8c0f96011))
    (pin "22" (uuid db24d773-da6a-4687-a862-6558acfd9881))
    (pin "23" (uuid bd63c2f8-900f-4109-8683-f1aaf362d160))
    (pin "24" (uuid cfad5248-73ab-4a52-a7de-471c56fcb370))
    (pin "25" (uuid bc3a75f5-4104-4b94-9897-136fe8086f1a))
    (pin "26" (uuid 9794fca8-36ce-4532-9598-036b7a096b35))
    (pin "27" (uuid d5fad88f-f5f0-474b-ba74-c96c65b08739))
    (pin "28" (uuid 22d4e666-553c-47cc-a39d-28c96ae093c0))
    (pin "29" (uuid 0d96bf22-796d-40ed-94e0-ebb064490371))
    (pin "3" (uuid f8ccb230-5d4f-4d69-b587-4ac5d69ed721))
    (pin "30" (uuid d0f681cc-3830-4aaa-b955-3ec7d91d0c05))
    (pin "31" (uuid b3eef4c6-d95c-479a-a436-6b552154b09a))
    (pin "32" (uuid b3b138f6-6237-4130-8d03-2022aa7c88c6))
    (pin "33" (uuid da8bd3fe-d1d7-48b3-983c-8bd1c3c3f658))
    (pin "34" (uuid 38e543b0-1d80-43ef-af00-39dd65a0e18c))
    (pin "35" (uuid 32fb5b74-00a0-4cb5-8047-48b19566a497))
    (pin "36" (uuid 39fed399-b749-4a31-85c6-b0a18defd7e1))
    (pin "37" (uuid fc1c7de6-98c3-4e64-b249-f5f5aa666501))
    (pin "38" (uuid f95fd211-9c17-41fa-a189-baf055dfc6d6))
    (pin "39" (uuid 45fdceb0-7d8e-42be-8bbf-6d95dd2cbffc))
    (pin "4" (uuid 9dd0d83b-e557-4625-b2d3-d9a32cd8c86e))
    (pin "40" (uuid ca93dfe8-1593-42e0-b521-ad7866772308))
    (pin "41" (uuid 2a9a89c1-bc82-469b-88d3-b9d1a994e305))
    (pin "42" (uuid df4c50af-a8d5-42cf-9483-9981a59c28b0))
    (pin "43" (uuid ff1e34a1-5053-4f47-b906-7167b5f775ba))
    (pin "44" (uuid e7cdfc57-6740-4736-90ff-c73ad3904b29))
    (pin "45" (uuid fb5677bc-03e6-4802-9daf-65f5db8efd8f))
    (pin "5" (uuid 52b873ca-8112-4cc9-88fe-eb45d73c7cc0))
    (pin "6" (uuid adb45e55-8611-4abc-bde1-fdb99ccb70be))
    (pin "7" (uuid def867ec-535c-4832-942c-0412009573e7))
    (pin "8" (uuid 10cc513f-3a39-4461-a1af-5b92c566c4ed))
    (pin "9" (uuid a58014dc-c7b7-4692-871a-c5a4ad0cc403))
    (instances
      (project "t9"
        (path "/ee4822dd-0dcd-4d37-95f6-bbd16d7fcc2b/fed08e20-03fe-462e-b387-341b8ffbf204"
          (reference "U1") (unit 1)
        )
      )
    )
  )

  (symbol (lib_id "Device:C") (at 71.12 121.92 0) (unit 1)
    (in_bom yes) (on_board yes) (dnp no)
    (uuid bfe26d01-b318-4e0f-8cd2-ccd170d00527)
    (property "Reference" "C3" (at 74.041 120.7516 0)
      (effects (font (size 1.27 1.27)) (justify left))
    )
    (property "Value" "0.1uF" (at 74.041 123.063 0)
      (effects (font (size 1.27 1.27)) (justify left))
    )
    (property "Footprint" "Capacitor_SMD:C_0805_2012Metric_Pad1.18x1.45mm_HandSolder" (at 72.0852 125.73 0)
      (effects (font (size 1.27 1.27)) hide)
    )
    (property "Datasheet" "https://www.mouser.de/datasheet/2/585/MLCC-1837944.pdf" (at 71.12 121.92 0)
      (effects (font (size 1.27 1.27)) hide)
    )
    (property "mouser part number" "187-CL21F104ZBCNNNC" (at 71.12 121.92 0)
      (effects (font (size 1.27 1.27)) hide)
    )
    (pin "1" (uuid 60533a2c-c017-4ab7-b4d2-fb06f341e2ea))
    (pin "2" (uuid 066fa10a-dcb3-490e-8d99-07f767391ec3))
    (instances
      (project "t9"
        (path "/ee4822dd-0dcd-4d37-95f6-bbd16d7fcc2b/fed08e20-03fe-462e-b387-341b8ffbf204"
          (reference "C3") (unit 1)
        )
      )
    )
  )

  (symbol (lib_id "power:VCC") (at 82.55 115.57 0) (unit 1)
    (in_bom yes) (on_board yes) (dnp no)
    (uuid c4966b48-f2a8-481e-9ccd-42c2bc0cf707)
    (property "Reference" "#PWR0108" (at 82.55 119.38 0)
      (effects (font (size 1.27 1.27)) hide)
    )
    (property "Value" "VCC" (at 82.9818 111.1758 0)
      (effects (font (size 1.27 1.27)))
    )
    (property "Footprint" "" (at 82.55 115.57 0)
      (effects (font (size 1.27 1.27)) hide)
    )
    (property "Datasheet" "" (at 82.55 115.57 0)
      (effects (font (size 1.27 1.27)) hide)
    )
    (pin "1" (uuid 7f15558a-e376-46a5-a598-95a1d1449b27))
    (instances
      (project "t9"
        (path "/ee4822dd-0dcd-4d37-95f6-bbd16d7fcc2b/fed08e20-03fe-462e-b387-341b8ffbf204"
          (reference "#PWR0108") (unit 1)
        )
      )
    )
  )

  (symbol (lib_id "Connector:TestPoint_2Pole") (at 93.98 49.53 0) (unit 1)
    (in_bom yes) (on_board yes) (dnp no) (fields_autoplaced)
    (uuid da73b0c1-0068-434b-9c35-669240aa87a8)
    (property "Reference" "TP1" (at 93.98 43.18 0)
      (effects (font (size 1.27 1.27)))
    )
    (property "Value" "TestPoint_2Pole" (at 93.98 45.72 0)
      (effects (font (size 1.27 1.27)))
    )
    (property "Footprint" "Jumper:SolderJumper-2_P1.3mm_Open_RoundedPad1.0x1.5mm" (at 93.98 49.53 0)
      (effects (font (size 1.27 1.27)) hide)
    )
    (property "Datasheet" "~" (at 93.98 49.53 0)
      (effects (font (size 1.27 1.27)) hide)
    )
    (pin "1" (uuid fe811e3f-517f-4b53-8126-825a525b2c72))
    (pin "2" (uuid 2b989bed-680b-4929-9a35-f804e33bf134))
    (instances
      (project "t9"
        (path "/ee4822dd-0dcd-4d37-95f6-bbd16d7fcc2b/fed08e20-03fe-462e-b387-341b8ffbf204"
          (reference "TP1") (unit 1)
        )
      )
    )
  )

  (symbol (lib_id "Device:C") (at 67.31 67.31 270) (unit 1)
    (in_bom yes) (on_board yes) (dnp no)
    (uuid f349b2a3-b08a-4bbd-b306-a8830c69904a)
    (property "Reference" "C2" (at 67.31 60.9092 90)
      (effects (font (size 1.27 1.27)))
    )
    (property "Value" "22pF" (at 67.31 63.2206 90)
      (effects (font (size 1.27 1.27)))
    )
    (property "Footprint" "Capacitor_SMD:C_0805_2012Metric_Pad1.18x1.45mm_HandSolder" (at 63.5 68.2752 0)
      (effects (font (size 1.27 1.27)) hide)
    )
    (property "Datasheet" "https://www.mouser.de/datasheet/2/212/KEM_C1007_X8R_ULTRA_150C_SMD-1102703.pdf" (at 67.31 67.31 0)
      (effects (font (size 1.27 1.27)) hide)
    )
    (property "mouser part number" "80-C0805C220K5HACTU" (at 67.31 67.31 90)
      (effects (font (size 1.27 1.27)) hide)
    )
    (pin "1" (uuid e7435512-88a8-42ac-b551-dab1551974e3))
    (pin "2" (uuid 95374538-d4e7-40ed-9fc7-55fb16e1f0d7))
    (instances
      (project "t9"
        (path "/ee4822dd-0dcd-4d37-95f6-bbd16d7fcc2b/fed08e20-03fe-462e-b387-341b8ffbf204"
          (reference "C2") (unit 1)
        )
      )
    )
  )
)
